<?xml version="1.0" encoding="UTF-8"?>
<svg width="366px" height="244px" viewBox="0 0 366 244" version="1.1" xmlns="http://www.w3.org/2000/svg" xmlns:xlink="http://www.w3.org/1999/xlink">
    <!-- Generator: Sketch 48.2 (47327) - http://www.bohemiancoding.com/sketch -->
    <title>sofa</title>
    <desc>Created with Sketch.</desc>
    <defs></defs>
    <g id="Page-1" stroke="none" stroke-width="1" fill="none" fill-rule="evenodd">
        <g id="sofa" fill="#005AA4" fill-rule="nonzero">
            <path d="M342,71.2 L342,44.4 C342,11.6 319.2,0 297.6,0 L67.6,0 C46,7.10542736e-15 23.2,11.6 23.2,44.4 L23.2,71.2 C10,74.4 0,86.4 0,100.8 L0,194.8 C0,203.6 7.2,210.8 16,210.8 L23.6,210.8 L23.6,228.8 C23.6,236.8 30,243.2 38,243.2 L54,243.2 C62,243.2 68.4,236.8 68.4,228.8 L68.4,210.8 L296.8,210.8 L296.8,228.8 C296.8,236.8 303.2,243.2 311.2,243.2 L327.2,243.2 C335.2,243.2 341.6,236.8 341.6,228.8 L341.6,210.8 L349.2,210.8 C358,210.8 365.2,203.6 365.2,194.8 L365.2,100.8 C365.2,86.4 355.2,74.4 342,71.2 Z M37.2,44.8 C37.6,19.6 54,14.4 67.6,14.4 L296,14.4 C309.6,14.4 326.4,19.6 326.4,44.8 L326.4,71.6 C313.2,74.8 303.2,86.8 303.2,100.8 L303.2,109.2 L60.4,109.2 L60.4,100.8 C60.4,86.8 50.4,74.8 37.2,71.6 L37.2,44.8 Z M303.2,123.6 L303.2,151.2 L187.2,151.2 L187.2,123.6 L303.2,123.6 Z M172.8,123.6 L172.8,151.2 L60.4,151.2 L60.4,123.6 L172.8,123.6 Z M53.6,228.8 L37.6,228.8 L37.6,210.8 L53.6,210.8 L53.6,228.8 Z M326.4,228.8 L310.4,228.8 L310.4,210.8 L326.4,210.8 L326.4,228.8 Z M350,194.8 C350,195.6 349.2,196.4 348.4,196.4 L326.8,196.4 L310.8,196.4 L53.6,196.4 L37.6,196.4 L16,196.4 C15.2,196.4 14.4,195.6 14.4,194.8 L14.4,100.8 C14.4,92 21.6,84.8 30.4,84.8 C39.2,84.8 46.4,92 46.4,100.8 L46.4,158.4 C46.4,162.4 49.6,165.6 53.6,165.6 L310.8,165.6 C314.8,165.6 318,162.4 318,158.4 L318,100.8 C318,92 325.2,84.8 334,84.8 C342.8,84.8 350,92 350,100.8 L350,194.8 Z" id="Shape"></path>
            <path d="M102,40.8 C89.6,40.8 80,50.4 80,62.8 C80,74.8 90,84.8 102,84.8 C114,84.8 124,75.2 124,62.8 C124,50.8 114.4,40.8 102,40.8 Z M102,70.4 C98,70.4 94.4,67.2 94.4,62.8 C94.4,58.4 97.6,55.2 102,55.2 C106,55.2 109.6,58.4 109.6,62.8 C109.6,67.2 106,70.4 102,70.4 Z" id="Shape"></path>
            <path d="M258.4,40.8 C246,40.8 236.4,50.4 236.4,62.8 C236.8,74.8 246.4,84.8 258.4,84.8 C270.4,84.8 280.4,75.2 280.4,62.8 C280.4,50.8 270.8,40.8 258.4,40.8 Z M258.4,70.4 C254.4,70.4 250.8,67.2 250.8,62.8 C250.8,58.4 254.4,55.2 258.4,55.2 C262.4,55.2 266,58.4 266,62.8 C266,67.2 262.8,70.4 258.4,70.4 Z" id="Shape"></path>
        </g>
    </g>
</svg>