<?xml version="1.0" encoding="UTF-8"?>
<svg width="28px" height="33px" viewBox="0 0 28 33" version="1.1" xmlns="http://www.w3.org/2000/svg" xmlns:xlink="http://www.w3.org/1999/xlink">
    <!-- Generator: Sketch 48.2 (47327) - http://www.bohemiancoding.com/sketch -->
    <title>vendor</title>
    <desc>Created with Sketch.</desc>
    <defs></defs>
    <g id="Page-1" stroke="none" stroke-width="1" fill="none" fill-rule="evenodd">
        <g id="vendor" transform="translate(-1.000000, 0.000000)" fill="#005AA4">
            <path d="M19.351,18.017 L18.6,18.017 C18.318,18.017 18.088,17.796 18.088,17.525 L18.088,16.38 C18.088,16.237 18.172,16.095 18.313,16.003 C20.566,14.527 21.966,11.651 21.966,8.498 C21.965,3.813 18.874,0.001 15.076,0.001 C11.277,0.001 8.186,3.813 8.186,8.498 C8.186,11.629 9.57,14.495 11.798,15.978 C11.938,16.071 12.022,16.213 12.022,16.359 L12.022,17.525 C12.022,17.796 11.793,18.017 11.51,18.017 L10.686,18.017 C5.344,18.017 0.998,22.412 0.998,27.815 L0.998,31.88 C0.998,32.498 1.484,32.998 2.082,32.998 L27.917,32.998 C28.515,32.998 29.001,32.498 29.001,31.88 L29.001,27.777 C29.001,22.395 24.672,18.017 19.351,18.017 Z M18.703,19.896 L18.703,23.757 L15.9,22.537 L18.703,19.896 Z M15.076,1.118 C16.337,1.118 17.5,1.635 18.452,2.503 C17.41,4.67 15.213,6.057 12.772,6.057 C11.744,6.057 10.736,5.806 9.836,5.336 C10.769,2.845 12.761,1.118 15.076,1.118 Z M11.115,19.896 L13.918,22.537 L11.115,23.758 L11.115,19.896 Z M14.367,31.88 L6.779,31.88 L6.779,27.953 C6.779,27.644 6.537,27.394 6.238,27.394 C5.938,27.394 5.695,27.644 5.695,27.953 L5.695,31.88 L2.082,31.88 L2.082,27.815 C2.082,23.264 5.603,19.504 10.031,19.163 L10.031,24.6 C10.031,24.787 10.122,24.962 10.274,25.065 C10.425,25.169 10.616,25.187 10.784,25.114 L14.367,23.555 L14.367,31.88 Z M11.868,19.091 C12.577,18.927 13.107,18.289 13.107,17.525 L13.107,16.359 C13.107,15.823 12.829,15.333 12.386,15.038 C10.534,13.805 9.27,11.339 9.27,8.498 C9.27,7.774 9.355,7.077 9.508,6.417 C10.518,6.913 11.636,7.174 12.772,7.174 C15.489,7.174 17.951,5.697 19.238,3.36 C20.254,4.689 20.882,6.499 20.882,8.498 C20.882,11.356 19.602,13.834 17.732,15.059 C17.285,15.352 17.004,15.843 17.004,16.381 L17.004,17.525 C17.004,18.195 17.411,18.77 17.989,19.012 L14.872,21.921 L11.868,19.091 Z M27.917,31.88 L24.123,31.88 L24.123,27.953 C24.123,27.644 23.88,27.394 23.581,27.394 C23.282,27.394 23.039,27.644 23.039,27.953 L23.039,31.88 L15.451,31.88 L15.451,23.555 L19.035,25.114 C19.203,25.187 19.395,25.169 19.544,25.065 C19.696,24.962 19.787,24.786 19.787,24.599 L19.787,19.146 C24.315,19.376 27.917,23.152 27.917,27.777 L27.917,31.88 Z M20.871,29.072 L17.619,29.072 C17.32,29.072 17.078,29.322 17.078,29.631 C17.078,29.94 17.32,30.19 17.619,30.19 L20.871,30.19 C21.171,30.19 21.413,29.939 21.413,29.631 C21.413,29.322 21.171,29.072 20.871,29.072 Z" id="Shape"></path>
        </g>
    </g>
</svg>